n_jets
QCDZZ
476802
603104
- ["alphas__1up",   +0.000, +0.001, +0.005, +0.008, ]
- ["alphas__1down", -0.000, -0.001, -0.005, -0.008, ]


dphill
QCDZZ
476802
603104
- ["alphas__1up",   +0.001, +0.000, +0.000, +0.001, +0.003, ]
- ["alphas__1down", -0.001, -0.000, -0.000, -0.001, -0.003, ]


leading_pT_lepton
QCDZZ
476802
603104
- ["alphas__1up",   +0.001, +0.000, +0.003, +0.000, +0.001, +0.001, ]
- ["alphas__1down", -0.001, -0.000, -0.003, -0.000, -0.001, -0.001, ]


mT_ZZ
QCDZZ
476802
603104
- ["alphas__1up",   +0.001, +0.000, +0.000, +0.002, ]
- ["alphas__1down", -0.001, -0.000, -0.000, -0.002, ]


pt_zz
QCDZZ
476802
603104
- ["alphas__1up",   +0.001, +0.001, +0.004, +0.001, ]
- ["alphas__1down", -0.001, -0.001, -0.004, -0.001, ]


Z_pT
QCDZZ
476802
603104
- ["alphas__1up",   +0.001, +0.000, +0.000, +0.001, +0.010, ]
- ["alphas__1down", -0.001, -0.000, -0.000, -0.001, -0.010, ]


Z_rapidity
QCDZZ
476802
603104
- ["alphas__1up",   +0.000, +0.000, +0.001, +0.000, +0.002, ]
- ["alphas__1down", -0.000, -0.000, -0.001, -0.000, -0.002, ]


CP_ZZ_1
QCDZZ
476802
603104
- ["alphas__1up",   +0.000, +0.001, +0.000, +0.000, +0.000, +0.000, +0.004, ]
- ["alphas__1down", -0.000, -0.001, -0.000, -0.000, -0.000, -0.000, -0.004, ]


CP_ZZ_2
QCDZZ
476802
603104
- ["alphas__1up",   +0.001, +0.000, +0.001, +0.000, +0.000, +0.001, +0.001, +0.002, +0.002, ]
- ["alphas__1down", -0.001, -0.000, -0.001, -0.000, -0.000, -0.001, -0.001, -0.002, -0.002, ]


