,0,0.2,0.4,0.6,0.8,1,1.2,1.4,1.6,1.8,2,
0,-0.994802,-0.994729,-0.994855,-0.995342,-0.995581,-0.995837,-0.995929,-0.996083,-0.996314,-0.996049,-0.996482,
0.05,-0.994768,-0.994693,-0.994819,-0.99531,-0.99555,-0.995808,-0.9959,-0.996055,-0.996287,-0.996021,-0.996456,
0.1,-0.994255,-0.994163,-0.994295,-0.99483,-0.995092,-0.995374,-0.995475,-0.995644,-0.9959,-0.995605,-0.996084,
0.15,-0.993179,-0.993055,-0.9932,-0.993828,-0.994135,-0.994469,-0.994586,-0.994786,-0.99509,-0.994731,-0.995302,
0.2,-0.991213,-0.991039,-0.991211,-0.992013,-0.9924,-0.992826,-0.992967,-0.993223,-0.993613,-0.993139,-0.993874,
0.25,-0.987596,-0.987324,-0.987542,-0.988662,-0.989195,-0.989785,-0.989966,-0.990307,-0.990847,-0.990148,-0.991179,
0.3,-0.98019,-0.97974,-0.980026,-0.981802,-0.982615,-0.983523,-0.983805,-0.984305,-0.985141,-0.983972,-0.985651,
0.35,-0.964812,-0.963874,-0.964264,-0.967335,-0.968716,-0.97023,-0.970584,-0.971455,-0.972827,-0.970659,-0.973663,
0.4,-0.912085,-0.90948,-0.910062,-0.917364,-0.920389,-0.923741,-0.924312,-0.926353,-0.929531,-0.923839,-0.931277,
0.45,-0.781534,-0.77385,-0.773796,-0.790363,-0.796796,-0.804317,-0.803228,-0.806547,-0.813591,-0.795894,-0.813954,
0.5,-0.457142,-0.436675,-0.434922,-0.470767,-0.482023,-0.494549,-0.485332,-0.488052,-0.502365,-0.44724,-0.485154,
