
Processing collect.cpp...
0.212329,0.210124,0.202299,0.197443,0.210082,0.160505,0.140888,0.140835,0.129064,0.132954,0.141656,
0.167897,0.16774,0.160318,0.159786,0.172715,0.128459,0.112581,0.116271,0.104885,0.108337,0.114146,
0.127095,0.127349,0.120056,0.119748,0.134053,0.0911225,0.0763933,0.0804132,0.068807,0.0729456,0.0798551,
0.0472445,0.048207,0.0403942,0.0399924,0.0528906,0.0124694,-0.00052848,0.00346194,-0.00631044,-0.00289599,0.00213301,
0.0403582,0.0402663,0.0312774,0.0327709,0.0447488,0.00447218,-0.0079274,-0.00111026,-0.0111515,-0.00790753,-0.00371985,
0.0176017,0.0169999,0.00904923,0.0111658,0.0228728,-0.0161759,-0.0263798,-0.0176478,-0.0270822,-0.023517,-0.0185923,
-0.0011269,0.00181617,-0.00502421,-0.0038555,0.0122748,-0.0261575,-0.0339887,-0.0251959,-0.0332654,-0.030578,-0.0265656,
-0.0442163,-0.0409535,-0.0473879,-0.0461216,-0.0291345,-0.0644497,-0.0726488,-0.0635904,-0.0713237,-0.068733,-0.0646979,
-0.0498432,-0.0491681,-0.055385,-0.0540315,-0.0354271,-0.0689587,-0.0784113,-0.0692648,-0.077471,-0.0751671,-0.0712285,
-0.0822344,-0.0805759,-0.0862014,-0.0851346,-0.0672395,-0.10041,-0.109054,-0.0997652,-0.107629,-0.105646,-0.102316,
-0.110442,-0.109013,-0.113927,-0.113542,-0.0964777,-0.127735,-0.136453,-0.127537,-0.134763,-0.132656,-0.129954,
